…
## Test

Test the `uss_make_matches()` function in the console.

```{r}
uss_make_matches(engsoccerdata::italy)
```

\

```
# A tibble: 25,404 x 7
    tier season date       home      visitor goals_home goals_visitor
   <int>  <int> <date>     <chr>     <chr>        <int>         <int>
 1     1   1934 1934-09-30 Lazio Ro~ US Liv~          6             1
 2     1   1934 1934-09-30 Torino FC Unione~          3             1
 3     1   1934 1934-09-30 Sampierd~ Bologn~          2             1
 4     1   1934 1934-09-30 SSC Napo~ US Ale~          0             1
 5     1   1934 1934-09-30 ACF Fior~ AS Roma          4             1
 6     1   1934 1934-09-30 Brescia ~ Juvent~          0             2
 7     1   1934 1934-09-30 Inter     US Pal~          3             0
 8     1   1934 1934-09-30 Pro Verc~ AC Mil~          1             2
 9     1   1934 1934-10-07 AC Milan  ACF Fi~          1             1
10     1   1934 1934-10-07 US Livor~ Inter            1             1
# ... with 25,394 more rows
```
…
