Building tidy tools - 📦 Building tidy tools
…
devtools::load_all()

🎬 Load package with devtools::load_all().

devtools::load_all()

ℹ Loading ussie

Experiment

🎬 Try out the uss_make_matches() function in the console.

uss_make_matches(engsoccerdata::italy)

# A tibble: 25,404 × 7
    tier season date       home   visitor goals_home goals_visitor
   <int>  <int> <date>     <chr>  <chr>        <int>         <int>
 1     1   1934 1934-09-30 Lazio… US Liv…          6             1
 2     1   1934 1934-09-30 Torin… Unione…          3             1
 3     1   1934 1934-09-30 Sampi… Bologn…          2             1
 4     1   1934 1934-09-30 SSC N… US Ale…          0             1
 5     1   1934 1934-09-30 ACF F… AS Roma          4             1
 6     1   1934 1934-09-30 Bresc… Juvent…          0             2
 7     1   1934 1934-09-30 Inter  US Pal…          3             0
 8     1   1934 1934-09-30 Pro V… AC Mil…          1             2
 9     1   1934 1934-10-07 AC Mi… ACF Fi…          1             1
10     1   1934 1934-10-07 US Li… Inter            1             1
# … with 25,394 more rows
…
